Prediction
…
Run the code below to load each of the datasets listed in the Datasets as new objects

# College data
college_train <- read_csv(file = "1_Data/college_train.csv")
college_test <- read_csv(file = "1_Data/college_test.csv")

Take a look at the first few rows of each dataframe by printing them to the console.

# Print dataframes to the console

college_train

# A tibble: 500 x 18
   Private  Apps Accept Enroll Top10perc Top25perc F.Undergrad P.Undergrad
   <chr>   <int>  <int>  <int>     <int>     <int>       <int>       <int>
 1 Yes      1202   1054    326        18        44        1410         299
 2 Yes      1415    714    338        18        52        1345          44
 3 Yes      4778   2767    678        50        89        2587         120
 4 Yes      1220    974    481        28        67        1964         623
 5 Yes      1981   1541    514        18        36        1927        1084
 6 Yes      1217   1088    496        36        69        1773         884
 7 No       8579   5561   3681        25        50       17880        1673
 8 No        833    669    279         3        13        1224         345
 9 No      10706   7219   2397        12        37       14826        1979
10 Yes       938    864    511        29        62        1715         103
# ... with 490 more rows, and 10 more variables: Outstate <int>,
#   Room.Board <int>, Books <int>, Personal <int>, PhD <int>,
#   Terminal <int>, S.F.Ratio <dbl>, perc.alumni <int>, Expend <int>,
#   Grad.Rate <int>

college_test

# A tibble: 277 x 18
   Private  Apps Accept Enroll Top10perc Top25perc F.Undergrad P.Undergrad
   <chr>   <int>  <int>  <int>     <int>     <int>       <int>       <int>
 1 No       9251   7333   3076        14        45       13699        1213
 2 Yes      1480   1257    452         6        25        2961         572
 3 No       2336   1725   1043        10        27        5438        4058
 4 Yes      1262   1102    276        14        40         978          98
 5 Yes       959    771    351        23        48        1662         209
 6 Yes       331    331    225        15        36        1100         166
 7 Yes       804    632    281        29        72         840          68
 8 No        285    280    208        21        43        1140         473
 9 Yes       323    278    122        31        51         393           4
10 Yes       504    482    185        10        36         550          84
# ... with 267 more rows, and 10 more variables: Outstate <int>,
#   Room.Board <int>, Books <int>, Personal <int>, PhD <int>,
#   Terminal <int>, S.F.Ratio <dbl>, perc.alumni <int>, Expend <int>,
#   Grad.Rate <int>
…
